<?xml version="1.0" encoding="utf-8"?>
<!-- Generator: Adobe Illustrator 19.1.0, SVG Export Plug-In . SVG Version: 6.00 Build 0)  -->
<svg version="1.1" id="Layer_1" xmlns="http://www.w3.org/2000/svg" xmlns:xlink="http://www.w3.org/1999/xlink" x="0px" y="0px"
	 viewBox="-105 34 400 150" style="enable-background:new -105 34 400 150;" xml:space="preserve">
<style type="text/css">
	.st0{fill:#EEEEEE;}
	.st1{fill:#292B2B;}
	.st2{fill:#16A74B;}
</style>
<g>
	
		<image style="overflow:visible;enable-background:new    ;" width="224" height="78" xlink:href="F7C311C7A89FB8E9.jpg"  transform="matrix(1 0 0 1 -17 70)">
	</image>
</g>
<g>
	
		<image style="overflow:visible;enable-background:new    ;" width="123" height="124" xlink:href="F7C311C7A89FB8EB.jpg"  transform="matrix(1 0 0 1 35 47)">
	</image>
</g>
<rect x="-105" y="34" class="st0" width="400" height="150"/>
<g>
	<path class="st1" d="M68.3,143.4h3.9c3.9,0,6.7,2.6,6.7,6.4c0,3.8-2.8,6.4-6.7,6.4h-3.9V143.4z M72.1,153.8c2.8,0,4.1-1.7,4.1-4.1
		c0-2.4-1.3-4.1-4.1-4.1h-1.2v8.1H72.1z"/>
	<rect x="84.9" y="143.4" class="st1" width="2.6" height="12.7"/>
	<path class="st1" d="M93.6,149.8c0-3.8,2.7-6.5,6.5-6.5c2.1,0,3.6,0.6,4.6,1.8l-1.8,1.8c-0.6-0.7-1.4-1.2-2.8-1.2
		c-2.3,0-3.8,1.8-3.8,4.2c0,2.4,1.5,4.2,4.2,4.2c0.8,0,1.8-0.2,2.5-0.5v-1.9h-3.1v-2.3h5.5v5.5c-0.7,0.6-2.6,1.5-4.9,1.5
		C96.3,156.3,93.6,153.5,93.6,149.8"/>
	<rect x="111.7" y="143.4" class="st1" width="2.6" height="12.7"/>
	<polygon class="st1" points="123.6,145.7 120,145.7 120,143.4 129.9,143.4 129.9,145.7 126.3,145.7 126.3,156.1 123.6,156.1 	"/>
	<path class="st1" d="M138.5,143.3h0.2l5.8,12.8h-2.8l-0.6-1.4H136l-0.6,1.4h-2.5L138.5,143.3z M140.2,152.5l-0.9-2.2
		c-0.4-0.9-0.8-2.3-0.8-2.3s-0.4,1.4-0.7,2.3l-0.9,2.2H140.2z"/>
	<polygon class="st1" points="150,143.4 152.6,143.4 152.6,153.8 158.4,153.8 158.4,156.1 150,156.1 	"/>
	<polygon class="st1" points="172.1,143.4 174.7,143.4 174.7,153.8 180.5,153.8 180.5,156.1 172.1,156.1 	"/>
	<path class="st1" d="M191,143.3h0.2l5.8,12.8h-2.8l-0.6-1.4h-5.2l-0.6,1.4h-2.5L191,143.3z M192.8,152.5l-0.9-2.2
		c-0.4-0.9-0.8-2.3-0.8-2.3s-0.4,1.4-0.7,2.3l-0.9,2.2H192.8z"/>
	<path class="st1" d="M202.6,143.4h4.9c2.4,0,3.7,1.5,3.7,3.3c0,1.2-0.7,2-1.8,2.3c1.7,0.4,2.6,1.6,2.6,3.2c0,2.3-1.6,3.9-4.3,3.9
		h-5.1V143.4z M207.2,148.1c0.8,0,1.4-0.5,1.4-1.2c0-0.7-0.5-1.2-1.3-1.2h-2.2v2.4H207.2z M207.6,153.8c1.1,0,1.7-0.7,1.7-1.8
		c0-1-0.7-1.7-1.9-1.7h-2.3v3.5H207.6z"/>
	<path class="st1" d="M216.8,153.6l2.1-1.2c0.6,0.9,1.3,1.6,2.6,1.6c1.1,0,1.8-0.5,1.8-1.3c0-0.9-0.7-1.2-1.9-1.7l-0.7-0.3
		c-1.9-0.8-3.1-1.8-3.1-4c0-2,1.5-3.5,3.8-3.5c1.7,0,2.9,0.6,3.7,2.1l-2,1.3c-0.5-0.8-0.9-1.1-1.7-1.1c-0.8,0-1.3,0.5-1.3,1.1
		c0,0.8,0.5,1.1,1.6,1.6l0.7,0.3c2.2,1,3.5,1.9,3.5,4.1c0,2.4-1.9,3.7-4.3,3.7C219.2,156.3,217.6,155.1,216.8,153.6"/>
	<path class="st1" d="M115.5,61.7h7.4v44.8c0,9.2,3.5,13.8,10.4,13.8l2.6-0.2v6.9c-1.1,0.2-2.1,0.4-3.2,0.4c-1.6,0-3.3-0.2-4.9-0.6
		c-1.6-0.4-3.5-1.2-5.6-2.4c-2.1-1.2-3.7-3.1-4.9-5.7c-1.2-2.6-1.8-5.9-1.8-9.8V61.7z"/>
	<path class="st1" d="M-24.6,121.8c6.7,0,11.3-2.7,14.3-6l4.7,4.6c-4.1,4.7-10.1,7.8-18.9,7.8c-14.8,0-24.4-10.2-24.4-23.4
		c0-13.2,10.1-23.5,23.3-23.5c14.5,0,23.2,11.1,22.6,26h-38.3C-40.4,115.9-34.5,121.8-24.6,121.8 M-10.7,101.6
		c-0.7-7.7-5.5-13.8-15-13.8c-8.6,0-14.4,5.6-15.6,13.8H-10.7z"/>
	<path class="st1" d="M3,82.3h8.4l12,26c1.4,3,2.5,7.7,2.5,7.7s1-4.7,2.4-7.7l11.8-26h7.8l-21.6,45.9h-1.4L3,82.3z"/>
	<path class="st1" d="M141.9,82.3h8.4l12,26c1.4,3,2.5,7.7,2.5,7.7s1-4.7,2.4-7.7l11.8-26h7.8l-21.6,45.9h-1.4L141.9,82.3z"/>
	<path class="st1" d="M217.4,121.8c6.7,0,11.3-2.7,14.3-6l4.7,4.6c-4.1,4.7-10.1,7.8-18.9,7.8c-14.8,0-24.4-10.2-24.4-23.4
		c0-13.2,10.1-23.5,23.3-23.5c14.5,0,23.2,11.1,22.6,26h-38.3C201.6,115.9,207.5,121.8,217.4,121.8 M231.4,101.6
		c-0.7-7.7-5.5-13.8-15-13.8c-8.6,0-14.4,5.6-15.6,13.8H231.4z"/>
	<path class="st2" d="M102.7,104.3c0,13.2-10.7,23.9-23.9,23.9c-13.2,0-23.9-10.7-23.9-23.9c0-13.2,10.7-23.9,23.9-23.9
		C92,80.5,102.7,91.2,102.7,104.3"/>
	<path class="st1" d="M90.6,104.3c0,6.5-5.3,11.8-11.8,11.8c-6.5,0-11.8-5.3-11.8-11.8c0-6.5,5.3-11.8,11.8-11.8
		C85.3,92.6,90.6,97.8,90.6,104.3"/>
</g>
</svg>
